<?xml version="1.0" encoding="UTF-8" standalone="no"?>
<!-- Created with Inkscape (http://www.inkscape.org/) -->

<svg
   xmlns:dc="http://purl.org/dc/elements/1.1/"
   xmlns:cc="http://creativecommons.org/ns#"
   xmlns:rdf="http://www.w3.org/1999/02/22-rdf-syntax-ns#"
   xmlns:svg="http://www.w3.org/2000/svg"
   xmlns="http://www.w3.org/2000/svg"
   xmlns:sodipodi="http://sodipodi.sourceforge.net/DTD/sodipodi-0.dtd"
   xmlns:inkscape="http://www.inkscape.org/namespaces/inkscape"
   version="1.1"
   id="svg2"
   xml:space="preserve"
   width="2267.72"
   height="1133.8586"
   viewBox="0 0 2267.72 1133.8586"
   sodipodi:docname="Pieces2.svg"
   inkscape:version="0.92.1 r15371"><metadata
     id="metadata8"><rdf:RDF><cc:Work
         rdf:about=""><dc:format>image/svg+xml</dc:format><dc:type
           rdf:resource="http://purl.org/dc/dcmitype/StillImage" /><dc:title></dc:title></cc:Work></rdf:RDF></metadata><defs
     id="defs6"><clipPath
       clipPathUnits="userSpaceOnUse"
       id="clipPath110"><path
         d="M 0,850.394 H 1700.787 V 0 H 0 Z"
         id="path108"
         inkscape:connector-curvature="0" /></clipPath></defs><sodipodi:namedview
     pagecolor="#ffffff"
     bordercolor="#666666"
     borderopacity="1"
     objecttolerance="10"
     gridtolerance="10"
     guidetolerance="10"
     inkscape:pageopacity="0"
     inkscape:pageshadow="2"
     inkscape:window-width="1920"
     inkscape:window-height="1016"
     id="namedview4"
     showgrid="false"
     inkscape:zoom="0.50763315"
     inkscape:cx="1111.4502"
     inkscape:cy="528.45983"
     inkscape:window-x="0"
     inkscape:window-y="27"
     inkscape:window-maximized="1"
     inkscape:current-layer="g10" /><g
     id="g10"
     inkscape:groupmode="layer"
     inkscape:label="Pieces2b"
     transform="matrix(1.3333333,0,0,-1.3333333,0,1133.8587)"><g
       id="g12"
       transform="translate(284.2492,408.6695)"
       style="fill:none;stroke:#e90000;stroke-opacity:1;stroke-width:0.14173229;stroke-miterlimit:4;stroke-dasharray:none"><path
         d="M 0,0 V -14.173"
         style="fill:none;stroke:#e90000;stroke-width:0.14173229;stroke-linecap:butt;stroke-linejoin:miter;stroke-miterlimit:4;stroke-dasharray:none;stroke-opacity:1"
         id="path14"
         inkscape:connector-curvature="0" /></g><g
       id="g16"
       transform="translate(284.2492,394.4962)"
       style="fill:none;stroke:#e90000;stroke-opacity:1;stroke-width:0.14173229;stroke-miterlimit:4;stroke-dasharray:none"><path
         d="M 0,0 H 217.323"
         style="fill:none;stroke:#e90000;stroke-width:0.14173229;stroke-linecap:butt;stroke-linejoin:miter;stroke-miterlimit:4;stroke-dasharray:none;stroke-opacity:1"
         id="path18"
         inkscape:connector-curvature="0" /></g><g
       id="g20"
       transform="translate(501.5721,394.4962)"
       style="fill:none;stroke:#e90000;stroke-opacity:1;stroke-width:0.14173229;stroke-miterlimit:4;stroke-dasharray:none"><path
         d="M 0,0 V 14.173"
         style="fill:none;stroke:#e90000;stroke-width:0.14173229;stroke-linecap:butt;stroke-linejoin:miter;stroke-miterlimit:4;stroke-dasharray:none;stroke-opacity:1"
         id="path22"
         inkscape:connector-curvature="0" /></g><g
       id="g24"
       transform="translate(718.8949,540.9529)"
       style="fill:none;stroke:#e90000;stroke-opacity:1;stroke-width:0.14173229;stroke-miterlimit:4;stroke-dasharray:none"><path
         d="M 0,0 H 14.173"
         style="fill:none;stroke:#e90000;stroke-width:0.14173229;stroke-linecap:butt;stroke-linejoin:miter;stroke-miterlimit:4;stroke-dasharray:none;stroke-opacity:1"
         id="path26"
         inkscape:connector-curvature="0" /></g><g
       id="g28"
       transform="translate(733.0681,540.9529)"
       style="fill:none;stroke:#e90000;stroke-opacity:1;stroke-width:0.14173229;stroke-miterlimit:4;stroke-dasharray:none"><path
         d="M 0,0 V 264.567"
         style="fill:none;stroke:#e90000;stroke-width:0.14173229;stroke-linecap:butt;stroke-linejoin:miter;stroke-miterlimit:4;stroke-dasharray:none;stroke-opacity:1"
         id="path30"
         inkscape:connector-curvature="0" /></g><g
       id="g32"
       transform="translate(733.0681,805.5198)"
       style="fill:none;stroke:#e90000;stroke-opacity:1;stroke-width:0.14173229;stroke-miterlimit:4;stroke-dasharray:none"><path
         d="M 0,0 H -14.173"
         style="fill:none;stroke:#e90000;stroke-width:0.14173229;stroke-linecap:butt;stroke-linejoin:miter;stroke-miterlimit:4;stroke-dasharray:none;stroke-opacity:1"
         id="path34"
         inkscape:connector-curvature="0" /></g><g
       id="g36"
       transform="translate(501.5721,805.5198)"
       style="fill:none;stroke:#e90000;stroke-opacity:1;stroke-width:0.14173229;stroke-miterlimit:4;stroke-dasharray:none"><path
         d="M 0,0 H 217.323"
         style="fill:none;stroke:#e90000;stroke-width:0.14173229;stroke-linecap:butt;stroke-linejoin:miter;stroke-miterlimit:4;stroke-dasharray:none;stroke-opacity:1"
         id="path38"
         inkscape:connector-curvature="0" /></g><g
       id="g40"
       transform="translate(501.5721,805.5198)"
       style="fill:none;stroke:#e90000;stroke-opacity:1;stroke-width:0.14173229;stroke-miterlimit:4;stroke-dasharray:none"><path
         d="M 0,0 V 14.173"
         style="fill:none;stroke:#e90000;stroke-width:0.14173229;stroke-linecap:butt;stroke-linejoin:miter;stroke-miterlimit:4;stroke-dasharray:none;stroke-opacity:1"
         id="path42"
         inkscape:connector-curvature="0" /></g><g
       id="g44"
       transform="translate(501.5721,819.6931)"
       style="fill:none;stroke:#e90000;stroke-opacity:1;stroke-width:0.14173229;stroke-miterlimit:4;stroke-dasharray:none"><path
         d="M 0,0 H -217.323"
         style="fill:none;stroke:#e90000;stroke-width:0.14173229;stroke-linecap:butt;stroke-linejoin:miter;stroke-miterlimit:4;stroke-dasharray:none;stroke-opacity:1"
         id="path46"
         inkscape:connector-curvature="0" /></g><g
       id="g48"
       transform="translate(284.2492,819.6931)"
       style="fill:none;stroke:#e90000;stroke-opacity:1;stroke-width:0.14173229;stroke-miterlimit:4;stroke-dasharray:none"><path
         d="M 0,0 V -14.173"
         style="fill:none;stroke:#e90000;stroke-width:0.14173229;stroke-linecap:butt;stroke-linejoin:miter;stroke-miterlimit:4;stroke-dasharray:none;stroke-opacity:1"
         id="path50"
         inkscape:connector-curvature="0" /></g><g
       id="g52"
       transform="translate(284.2492,805.5198)"
       style="fill:none;stroke:#e90000;stroke-opacity:1;stroke-width:0.14173229;stroke-miterlimit:4;stroke-dasharray:none"><path
         d="M 0,0 H -217.323"
         style="fill:none;stroke:#e90000;stroke-width:0.14173229;stroke-linecap:butt;stroke-linejoin:miter;stroke-miterlimit:4;stroke-dasharray:none;stroke-opacity:1"
         id="path54"
         inkscape:connector-curvature="0" /></g><g
       id="g56"
       transform="translate(66.9264,805.5197)"
       style="fill:none;stroke:#e90000;stroke-opacity:1;stroke-width:0.14173229;stroke-miterlimit:4;stroke-dasharray:none"><path
         d="M 0,0 V 0"
         style="fill:none;stroke:#e90000;stroke-width:0.14173229;stroke-linecap:butt;stroke-linejoin:miter;stroke-miterlimit:4;stroke-dasharray:none;stroke-opacity:1"
         id="path58"
         inkscape:connector-curvature="0" /></g><g
       id="g60"
       transform="translate(66.9264,805.5197)"
       style="fill:none;stroke:#e90000;stroke-opacity:1;stroke-width:0.14173229;stroke-miterlimit:4;stroke-dasharray:none"><path
         d="M 0,0 H -14.173"
         style="fill:none;stroke:#e90000;stroke-width:0.14173229;stroke-linecap:butt;stroke-linejoin:miter;stroke-miterlimit:4;stroke-dasharray:none;stroke-opacity:1"
         id="path62"
         inkscape:connector-curvature="0" /></g><g
       id="g64"
       transform="translate(52.7532,805.5197)"
       style="fill:none;stroke:#e90000;stroke-opacity:1;stroke-width:0.14173229;stroke-miterlimit:4;stroke-dasharray:none"><path
         d="M 0,0 V -264.567"
         style="fill:none;stroke:#e90000;stroke-width:0.14173229;stroke-linecap:butt;stroke-linejoin:miter;stroke-miterlimit:4;stroke-dasharray:none;stroke-opacity:1"
         id="path66"
         inkscape:connector-curvature="0" /></g><g
       id="g68"
       transform="translate(52.7532,540.9529)"
       style="fill:none;stroke:#e90000;stroke-opacity:1;stroke-width:0.14173229;stroke-miterlimit:4;stroke-dasharray:none"><path
         d="M 0,0 H 14.173"
         style="fill:none;stroke:#e90000;stroke-width:0.14173229;stroke-linecap:butt;stroke-linejoin:miter;stroke-miterlimit:4;stroke-dasharray:none;stroke-opacity:1"
         id="path70"
         inkscape:connector-curvature="0" /></g><g
       id="g72"
       transform="translate(123.6193,465.3624)"
       style="fill:none;stroke:#e90000;stroke-opacity:1;stroke-width:0.14173229;stroke-miterlimit:4;stroke-dasharray:none"><path
         d="M 0,0 H 107.334"
         style="fill:none;stroke:#e90000;stroke-width:0.14173229;stroke-linecap:butt;stroke-linejoin:miter;stroke-miterlimit:4;stroke-dasharray:none;stroke-opacity:1"
         id="path74"
         inkscape:connector-curvature="0" /></g><g
       id="g76"
       transform="translate(230.9532,465.3624)"
       style="fill:none;stroke:#e90000;stroke-opacity:1;stroke-width:0.14173229;stroke-miterlimit:4;stroke-dasharray:none"><path
         d="M 0,0 V 283.465"
         style="fill:none;stroke:#e90000;stroke-width:0.14173229;stroke-linecap:butt;stroke-linejoin:miter;stroke-miterlimit:4;stroke-dasharray:none;stroke-opacity:1"
         id="path78"
         inkscape:connector-curvature="0" /></g><g
       id="g80"
       transform="translate(230.9532,748.8269)"
       style="fill:none;stroke:#e90000;stroke-opacity:1;stroke-width:0.14173229;stroke-miterlimit:4;stroke-dasharray:none"><path
         d="M 0,0 H -135.801"
         style="fill:none;stroke:#e90000;stroke-width:0.14173229;stroke-linecap:butt;stroke-linejoin:miter;stroke-miterlimit:4;stroke-dasharray:none;stroke-opacity:1"
         id="path82"
         inkscape:connector-curvature="0" /></g><g
       id="g84"
       transform="translate(95.1525,748.8269)"
       style="fill:none;stroke:#e90000;stroke-opacity:1;stroke-width:0.14173229;stroke-miterlimit:4;stroke-dasharray:none"><path
         d="m 0,0 0.042,-164.99 28.425,-60 v -58.475"
         style="fill:none;stroke:#e90000;stroke-width:0.14173229;stroke-linecap:butt;stroke-linejoin:miter;stroke-miterlimit:4;stroke-dasharray:none;stroke-opacity:1"
         id="path86"
         inkscape:connector-curvature="0" /></g><g
       id="g88"
       transform="translate(308,563.9088)"
       style="fill:none;stroke:#e90000;stroke-opacity:1;stroke-width:0.14173229;stroke-miterlimit:4;stroke-dasharray:none"><path
         d="M 0,0 H 221"
         style="fill:none;stroke:#e90000;stroke-width:0.14173229;stroke-linecap:butt;stroke-linejoin:miter;stroke-miterlimit:4;stroke-dasharray:none;stroke-opacity:1"
         id="path90"
         inkscape:connector-curvature="0" /></g><g
       id="g92"
       transform="translate(529,563.9088)"
       style="fill:none;stroke:#e90000;stroke-opacity:1;stroke-width:0.14173229;stroke-miterlimit:4;stroke-dasharray:none"><path
         d="M 0,0 V 126.595"
         style="fill:none;stroke:#e90000;stroke-width:0.14173229;stroke-linecap:butt;stroke-linejoin:miter;stroke-miterlimit:4;stroke-dasharray:none;stroke-opacity:1"
         id="path94"
         inkscape:connector-curvature="0" /></g><g
       id="g96"
       transform="translate(529,690.5037)"
       style="fill:none;stroke:#e90000;stroke-opacity:1;stroke-width:0.14173229;stroke-miterlimit:4;stroke-dasharray:none"><path
         d="M 0,0 H -221"
         style="fill:none;stroke:#e90000;stroke-width:0.14173229;stroke-linecap:butt;stroke-linejoin:miter;stroke-miterlimit:4;stroke-dasharray:none;stroke-opacity:1"
         id="path98"
         inkscape:connector-curvature="0" /></g><g
       id="g100"
       transform="translate(308,690.5037)"
       style="fill:none;stroke:#e90000;stroke-opacity:1;stroke-width:0.14173229;stroke-miterlimit:4;stroke-dasharray:none"><path
         d="M 0,0 V -126.595"
         style="fill:none;stroke:#e90000;stroke-width:0.14173229;stroke-linecap:butt;stroke-linejoin:miter;stroke-miterlimit:4;stroke-dasharray:none;stroke-opacity:1"
         id="path102"
         inkscape:connector-curvature="0" /></g><g
       id="g104"
       style="fill:none;stroke:#e90000;stroke-opacity:1;stroke-width:0.14173229;stroke-miterlimit:4;stroke-dasharray:none"><g
         id="g106"
         clip-path="url(#clipPath110)"
         style="fill:none;stroke:#e90000;stroke-opacity:1;stroke-width:0.14173229;stroke-miterlimit:4;stroke-dasharray:none"><g
           id="g112"
           transform="translate(283.3941,703.6285)"
           style="fill:none;stroke:#e90000;stroke-opacity:1;stroke-width:0.14173229;stroke-miterlimit:4;stroke-dasharray:none"><path
             d="M 0,0 C 0,-2.348 1.904,-4.252 4.252,-4.252 6.6,-4.252 8.504,-2.348 8.504,0 8.504,2.348 6.6,4.252 4.252,4.252 1.904,4.252 0,2.348 0,0 Z"
             style="fill:none;stroke:#e90000;stroke-width:0.14173229;stroke-linecap:butt;stroke-linejoin:miter;stroke-miterlimit:4;stroke-dasharray:none;stroke-opacity:1"
             id="path114"
             inkscape:connector-curvature="0" /></g><g
           id="g116"
           transform="translate(283.3941,507.2159)"
           style="fill:none;stroke:#e90000;stroke-opacity:1;stroke-width:0.14173229;stroke-miterlimit:4;stroke-dasharray:none"><path
             d="M 0,0 C 0,-2.348 1.904,-4.252 4.252,-4.252 6.6,-4.252 8.504,-2.348 8.504,0 8.504,2.348 6.6,4.252 4.252,4.252 1.904,4.252 0,2.348 0,0 Z"
             style="fill:none;stroke:#e90000;stroke-width:0.14173229;stroke-linecap:butt;stroke-linejoin:miter;stroke-miterlimit:4;stroke-dasharray:none;stroke-opacity:1"
             id="path118"
             inkscape:connector-curvature="0" /></g><g
           id="g120"
           transform="translate(547.2713,703.6285)"
           style="fill:none;stroke:#e90000;stroke-opacity:1;stroke-width:0.14173229;stroke-miterlimit:4;stroke-dasharray:none"><path
             d="M 0,0 C 0,-2.348 1.904,-4.252 4.252,-4.252 6.6,-4.252 8.504,-2.348 8.504,0 8.504,2.348 6.6,4.252 4.252,4.252 1.904,4.252 0,2.348 0,0 Z"
             style="fill:none;stroke:#e90000;stroke-width:0.14173229;stroke-linecap:butt;stroke-linejoin:miter;stroke-miterlimit:4;stroke-dasharray:none;stroke-opacity:1"
             id="path122"
             inkscape:connector-curvature="0" /></g><g
           id="g124"
           transform="translate(547.2713,507.2159)"
           style="fill:none;stroke:#e90000;stroke-opacity:1;stroke-width:0.14173229;stroke-miterlimit:4;stroke-dasharray:none"><path
             d="M 0,0 C 0,-2.348 1.904,-4.252 4.252,-4.252 6.6,-4.252 8.504,-2.348 8.504,0 8.504,2.348 6.6,4.252 4.252,4.252 1.904,4.252 0,2.348 0,0 Z"
             style="fill:none;stroke:#e90000;stroke-width:0.14173229;stroke-linecap:butt;stroke-linejoin:miter;stroke-miterlimit:4;stroke-dasharray:none;stroke-opacity:1"
             id="path126"
             inkscape:connector-curvature="0" /></g><g
           id="g128"
           transform="translate(1168.0779,42.6339)"
           style="fill:none;stroke:#e90000;stroke-opacity:1;stroke-width:0.14173229;stroke-miterlimit:4;stroke-dasharray:none"><path
             d="M 0,0 -340.157,-0.542"
             style="fill:none;stroke:#e90000;stroke-width:0.14173229;stroke-linecap:butt;stroke-linejoin:miter;stroke-miterlimit:4;stroke-dasharray:none;stroke-opacity:1"
             id="path130"
             inkscape:connector-curvature="0" /></g><g
           id="g132"
           transform="translate(799.5294,70.3935)"
           style="fill:none;stroke:#e90000;stroke-opacity:1;stroke-width:0.14173229;stroke-miterlimit:4;stroke-dasharray:none"><path
             d="M 0,0 C 0.025,-15.655 12.736,-28.326 28.392,-28.301"
             style="fill:none;stroke:#e90000;stroke-width:0.14173229;stroke-linecap:butt;stroke-linejoin:miter;stroke-miterlimit:4;stroke-dasharray:none;stroke-opacity:1"
             id="path134"
             inkscape:connector-curvature="0" /></g><g
           id="g136"
           transform="translate(799.0355,423.6842)"
           style="fill:none;stroke:#e90000;stroke-opacity:1;stroke-width:0.14173229;stroke-miterlimit:4;stroke-dasharray:none"><path
             d="M 0,0 0.023,-57.343"
             style="fill:none;stroke:#e90000;stroke-width:0.14173229;stroke-linecap:butt;stroke-linejoin:miter;stroke-miterlimit:4;stroke-dasharray:none;stroke-opacity:1"
             id="path138"
             inkscape:connector-curvature="0" /></g><g
           id="g140"
           transform="translate(1276.2233,366.3611)"
           style="fill:none;stroke:#e90000;stroke-opacity:1;stroke-width:0.14173229;stroke-miterlimit:4;stroke-dasharray:none"><path
             d="M 0,0 0.023,-14.173"
             style="fill:none;stroke:#e90000;stroke-width:0.14173229;stroke-linecap:butt;stroke-linejoin:miter;stroke-miterlimit:4;stroke-dasharray:none;stroke-opacity:1"
             id="path142"
             inkscape:connector-curvature="0" /></g><g
           id="g144"
           transform="translate(1276.2233,366.3611)"
           style="fill:none;stroke:#e90000;stroke-opacity:1;stroke-width:0.14173229;stroke-miterlimit:4;stroke-dasharray:none"><path
             d="M 0,0 -217.323,0.093"
             style="fill:none;stroke:#e90000;stroke-width:0.14173229;stroke-linecap:butt;stroke-linejoin:miter;stroke-miterlimit:4;stroke-dasharray:none;stroke-opacity:1"
             id="path146"
             inkscape:connector-curvature="0" /></g><g
           id="g148"
           transform="translate(1058.9233,352.2807)"
           style="fill:none;stroke:#e90000;stroke-opacity:1;stroke-width:0.14173229;stroke-miterlimit:4;stroke-dasharray:none"><path
             d="M 0,0 -0.023,14.173"
             style="fill:none;stroke:#e90000;stroke-width:0.14173229;stroke-linecap:butt;stroke-linejoin:miter;stroke-miterlimit:4;stroke-dasharray:none;stroke-opacity:1"
             id="path150"
             inkscape:connector-curvature="0" /></g><g
           id="g152"
           transform="translate(1276.2458,352.1879)"
           style="fill:none;stroke:#e90000;stroke-opacity:1;stroke-width:0.14173229;stroke-miterlimit:4;stroke-dasharray:none"><path
             d="M 0,0 -217.323,0.093"
             style="fill:none;stroke:#e90000;stroke-width:0.14173229;stroke-linecap:butt;stroke-linejoin:miter;stroke-miterlimit:4;stroke-dasharray:none;stroke-opacity:1"
             id="path154"
             inkscape:connector-curvature="0" /></g><g
           id="g156"
           transform="translate(1276.3813,267.4956)"
           style="fill:none;stroke:#e90000;stroke-opacity:1;stroke-width:0.14173229;stroke-miterlimit:4;stroke-dasharray:none"><path
             d="M 0,0 -217.323,-0.254"
             style="fill:none;stroke:#e90000;stroke-width:0.14173229;stroke-linecap:butt;stroke-linejoin:miter;stroke-miterlimit:4;stroke-dasharray:none;stroke-opacity:1"
             id="path158"
             inkscape:connector-curvature="0" /></g><g
           id="g160"
           transform="translate(1059.0587,267.2414)"
           style="fill:none;stroke:#e90000;stroke-opacity:1;stroke-width:0.14173229;stroke-miterlimit:4;stroke-dasharray:none"><path
             d="M 0,0 0.023,-14.173"
             style="fill:none;stroke:#e90000;stroke-width:0.14173229;stroke-linecap:butt;stroke-linejoin:miter;stroke-miterlimit:4;stroke-dasharray:none;stroke-opacity:1"
             id="path162"
             inkscape:connector-curvature="0" /></g><g
           id="g164"
           transform="translate(1059.0813,253.0682)"
           style="fill:none;stroke:#e90000;stroke-opacity:1;stroke-width:0.14173229;stroke-miterlimit:4;stroke-dasharray:none"><path
             d="M 0,0 217.323,0.254"
             style="fill:none;stroke:#e90000;stroke-width:0.14173229;stroke-linecap:butt;stroke-linejoin:miter;stroke-miterlimit:4;stroke-dasharray:none;stroke-opacity:1"
             id="path166"
             inkscape:connector-curvature="0" /></g><g
           id="g168"
           transform="translate(1276.4038,253.3224)"
           style="fill:none;stroke:#e90000;stroke-opacity:1;stroke-width:0.14173229;stroke-miterlimit:4;stroke-dasharray:none"><path
             d="M 0,0 -0.023,14.173"
             style="fill:none;stroke:#e90000;stroke-width:0.14173229;stroke-linecap:butt;stroke-linejoin:miter;stroke-miterlimit:4;stroke-dasharray:none;stroke-opacity:1"
             id="path170"
             inkscape:connector-curvature="0" /></g><g
           id="g172"
           transform="translate(841.3198,201.9983)"
           style="fill:none;stroke:#e90000;stroke-opacity:1;stroke-width:0.14173229;stroke-miterlimit:4;stroke-dasharray:none"><path
             d="M 0,0 0.09,-56.693"
             style="fill:none;stroke:#e90000;stroke-width:0.14173229;stroke-linecap:butt;stroke-linejoin:miter;stroke-miterlimit:4;stroke-dasharray:none;stroke-opacity:1"
             id="path174"
             inkscape:connector-curvature="0" /></g><g
           id="g176"
           transform="translate(827.1467,201.9758)"
           style="fill:none;stroke:#e90000;stroke-opacity:1;stroke-width:0.14173229;stroke-miterlimit:4;stroke-dasharray:none"><path
             d="M 0,0 14.173,0.023"
             style="fill:none;stroke:#e90000;stroke-width:0.14173229;stroke-linecap:butt;stroke-linejoin:miter;stroke-miterlimit:4;stroke-dasharray:none;stroke-opacity:1"
             id="path178"
             inkscape:connector-curvature="0" /></g><g
           id="g180"
           transform="translate(827.2369,145.2829)"
           style="fill:none;stroke:#e90000;stroke-opacity:1;stroke-width:0.14173229;stroke-miterlimit:4;stroke-dasharray:none"><path
             d="M 0,0 -0.09,56.693"
             style="fill:none;stroke:#e90000;stroke-width:0.14173229;stroke-linecap:butt;stroke-linejoin:miter;stroke-miterlimit:4;stroke-dasharray:none;stroke-opacity:1"
             id="path182"
             inkscape:connector-curvature="0" /></g><g
           id="g184"
           transform="translate(841.4101,145.3055)"
           style="fill:none;stroke:#e90000;stroke-opacity:1;stroke-width:0.14173229;stroke-miterlimit:4;stroke-dasharray:none"><path
             d="M 0,0 -14.173,-0.023"
             style="fill:none;stroke:#e90000;stroke-width:0.14173229;stroke-linecap:butt;stroke-linejoin:miter;stroke-miterlimit:4;stroke-dasharray:none;stroke-opacity:1"
             id="path186"
             inkscape:connector-curvature="0" /></g><g
           id="g188"
           transform="translate(841.1096,334.073)"
           style="fill:none;stroke:#e90000;stroke-opacity:1;stroke-width:0.14173229;stroke-miterlimit:4;stroke-dasharray:none"><path
             d="M 0,0 0.09,-56.693"
             style="fill:none;stroke:#e90000;stroke-width:0.14173229;stroke-linecap:butt;stroke-linejoin:miter;stroke-miterlimit:4;stroke-dasharray:none;stroke-opacity:1"
             id="path190"
             inkscape:connector-curvature="0" /></g><g
           id="g192"
           transform="translate(826.9363,334.0504)"
           style="fill:none;stroke:#e90000;stroke-opacity:1;stroke-width:0.14173229;stroke-miterlimit:4;stroke-dasharray:none"><path
             d="M 0,0 14.173,0.023"
             style="fill:none;stroke:#e90000;stroke-width:0.14173229;stroke-linecap:butt;stroke-linejoin:miter;stroke-miterlimit:4;stroke-dasharray:none;stroke-opacity:1"
             id="path194"
             inkscape:connector-curvature="0" /></g><g
           id="g196"
           transform="translate(827.0266,277.3576)"
           style="fill:none;stroke:#e90000;stroke-opacity:1;stroke-width:0.14173229;stroke-miterlimit:4;stroke-dasharray:none"><path
             d="M 0,0 -0.09,56.693"
             style="fill:none;stroke:#e90000;stroke-width:0.14173229;stroke-linecap:butt;stroke-linejoin:miter;stroke-miterlimit:4;stroke-dasharray:none;stroke-opacity:1"
             id="path198"
             inkscape:connector-curvature="0" /></g><g
           id="g200"
           transform="translate(841.1998,277.3802)"
           style="fill:none;stroke:#e90000;stroke-opacity:1;stroke-width:0.14173229;stroke-miterlimit:4;stroke-dasharray:none"><path
             d="M 0,0 -14.173,-0.023"
             style="fill:none;stroke:#e90000;stroke-width:0.14173229;stroke-linecap:butt;stroke-linejoin:miter;stroke-miterlimit:4;stroke-dasharray:none;stroke-opacity:1"
             id="path202"
             inkscape:connector-curvature="0" /></g><g
           id="g204"
           transform="translate(1536.0532,550.8292)"
           style="fill:none;stroke:#e90000;stroke-opacity:1;stroke-width:0.14173229;stroke-miterlimit:4;stroke-dasharray:none"><path
             d="M 0,0 V -127.559"
             style="fill:none;stroke:#e90000;stroke-width:0.14173229;stroke-linecap:butt;stroke-linejoin:miter;stroke-miterlimit:4;stroke-dasharray:none;stroke-opacity:1"
             id="path206"
             inkscape:connector-curvature="0" /></g><g
           id="g208"
           transform="translate(799.0453,423.2702)"
           style="fill:none;stroke:#e90000;stroke-opacity:1;stroke-width:0.14173229;stroke-miterlimit:4;stroke-dasharray:none"><path
             d="M 0,0 V 127.559"
             style="fill:none;stroke:#e90000;stroke-width:0.14173229;stroke-linecap:butt;stroke-linejoin:miter;stroke-miterlimit:4;stroke-dasharray:none;stroke-opacity:1"
             id="path210"
             inkscape:connector-curvature="0" /></g><g
           id="g212"
           transform="translate(813.2186,565.0024)"
           style="fill:none;stroke:#e90000;stroke-opacity:1;stroke-width:0.14173229;stroke-miterlimit:4;stroke-dasharray:none"><path
             d="M 0,0 C -7.828,0 -14.173,-6.346 -14.173,-14.173"
             style="fill:none;stroke:#e90000;stroke-width:0.14173229;stroke-linecap:butt;stroke-linejoin:miter;stroke-miterlimit:4;stroke-dasharray:none;stroke-opacity:1"
             id="path214"
             inkscape:connector-curvature="0" /></g><g
           id="g216"
           transform="translate(813.2186,565.0024)"
           style="fill:none;stroke:#e90000;stroke-opacity:1;stroke-width:0.14173229;stroke-miterlimit:4;stroke-dasharray:none"><path
             d="M 0,0 H 708.661"
             style="fill:none;stroke:#e90000;stroke-width:0.14173229;stroke-linecap:butt;stroke-linejoin:miter;stroke-miterlimit:4;stroke-dasharray:none;stroke-opacity:1"
             id="path218"
             inkscape:connector-curvature="0" /></g><g
           id="g220"
           transform="translate(1536.0532,550.8292)"
           style="fill:none;stroke:#e90000;stroke-opacity:1;stroke-width:0.14173229;stroke-miterlimit:4;stroke-dasharray:none"><path
             d="M 0,0 C 0,7.828 -6.346,14.173 -14.173,14.173"
             style="fill:none;stroke:#e90000;stroke-width:0.14173229;stroke-linecap:butt;stroke-linejoin:miter;stroke-miterlimit:4;stroke-dasharray:none;stroke-opacity:1"
             id="path222"
             inkscape:connector-curvature="0" /></g><g
           id="g224"
           transform="translate(1290.3839,536.656)"
           style="fill:none;stroke:#e90000;stroke-opacity:1;stroke-width:0.14173229;stroke-miterlimit:4;stroke-dasharray:none"><path
             d="M 0,0 H -245.669"
             style="fill:none;stroke:#e90000;stroke-width:0.14173229;stroke-linecap:butt;stroke-linejoin:miter;stroke-miterlimit:4;stroke-dasharray:none;stroke-opacity:1"
             id="path226"
             inkscape:connector-curvature="0" /></g><g
           id="g228"
           transform="translate(1044.7146,536.656)"
           style="fill:none;stroke:#e90000;stroke-opacity:1;stroke-width:0.14173229;stroke-miterlimit:4;stroke-dasharray:none"><path
             d="M 0,0 V 14.173"
             style="fill:none;stroke:#e90000;stroke-width:0.14173229;stroke-linecap:butt;stroke-linejoin:miter;stroke-miterlimit:4;stroke-dasharray:none;stroke-opacity:1"
             id="path230"
             inkscape:connector-curvature="0" /></g><g
           id="g232"
           transform="translate(1044.7146,550.8292)"
           style="fill:none;stroke:#e90000;stroke-opacity:1;stroke-width:0.14173229;stroke-miterlimit:4;stroke-dasharray:none"><path
             d="M 0,0 H 245.669"
             style="fill:none;stroke:#e90000;stroke-width:0.14173229;stroke-linecap:butt;stroke-linejoin:miter;stroke-miterlimit:4;stroke-dasharray:none;stroke-opacity:1"
             id="path234"
             inkscape:connector-curvature="0" /></g><g
           id="g236"
           transform="translate(1290.3839,550.8292)"
           style="fill:none;stroke:#e90000;stroke-opacity:1;stroke-width:0.14173229;stroke-miterlimit:4;stroke-dasharray:none"><path
             d="M 0,0 V -14.173"
             style="fill:none;stroke:#e90000;stroke-width:0.14173229;stroke-linecap:butt;stroke-linejoin:miter;stroke-miterlimit:4;stroke-dasharray:none;stroke-opacity:1"
             id="path238"
             inkscape:connector-curvature="0" /></g><g
           id="g240"
           transform="translate(1507.7067,458.7032)"
           style="fill:none;stroke:#e90000;stroke-opacity:1;stroke-width:0.14173229;stroke-miterlimit:4;stroke-dasharray:none"><path
             d="M 0,0 H -14.173"
             style="fill:none;stroke:#e90000;stroke-width:0.14173229;stroke-linecap:butt;stroke-linejoin:miter;stroke-miterlimit:4;stroke-dasharray:none;stroke-opacity:1"
             id="path242"
             inkscape:connector-curvature="0" /></g><g
           id="g244"
           transform="translate(1493.5334,458.7032)"
           style="fill:none;stroke:#e90000;stroke-opacity:1;stroke-width:0.14173229;stroke-miterlimit:4;stroke-dasharray:none"><path
             d="M 0,0 V 42.52"
             style="fill:none;stroke:#e90000;stroke-width:0.14173229;stroke-linecap:butt;stroke-linejoin:miter;stroke-miterlimit:4;stroke-dasharray:none;stroke-opacity:1"
             id="path246"
             inkscape:connector-curvature="0" /></g><g
           id="g248"
           transform="translate(1493.5334,501.2229)"
           style="fill:none;stroke:#e90000;stroke-opacity:1;stroke-width:0.14173229;stroke-miterlimit:4;stroke-dasharray:none"><path
             d="M 0,0 H 14.173"
             style="fill:none;stroke:#e90000;stroke-width:0.14173229;stroke-linecap:butt;stroke-linejoin:miter;stroke-miterlimit:4;stroke-dasharray:none;stroke-opacity:1"
             id="path250"
             inkscape:connector-curvature="0" /></g><g
           id="g252"
           transform="translate(1507.7067,501.2229)"
           style="fill:none;stroke:#e90000;stroke-opacity:1;stroke-width:0.14173229;stroke-miterlimit:4;stroke-dasharray:none"><path
             d="M 0,0 V -42.52"
             style="fill:none;stroke:#e90000;stroke-width:0.14173229;stroke-linecap:butt;stroke-linejoin:miter;stroke-miterlimit:4;stroke-dasharray:none;stroke-opacity:1"
             id="path254"
             inkscape:connector-curvature="0" /></g><g
           id="g256"
           transform="translate(841.565,458.7032)"
           style="fill:none;stroke:#e90000;stroke-opacity:1;stroke-width:0.14173229;stroke-miterlimit:4;stroke-dasharray:none"><path
             d="M 0,0 H -14.173"
             style="fill:none;stroke:#e90000;stroke-width:0.14173229;stroke-linecap:butt;stroke-linejoin:miter;stroke-miterlimit:4;stroke-dasharray:none;stroke-opacity:1"
             id="path258"
             inkscape:connector-curvature="0" /></g><g
           id="g260"
           transform="translate(827.3918,458.7032)"
           style="fill:none;stroke:#e90000;stroke-opacity:1;stroke-width:0.14173229;stroke-miterlimit:4;stroke-dasharray:none"><path
             d="M 0,0 V 42.52"
             style="fill:none;stroke:#e90000;stroke-width:0.14173229;stroke-linecap:butt;stroke-linejoin:miter;stroke-miterlimit:4;stroke-dasharray:none;stroke-opacity:1"
             id="path262"
             inkscape:connector-curvature="0" /></g><g
           id="g264"
           transform="translate(827.3918,501.2229)"
           style="fill:none;stroke:#e90000;stroke-opacity:1;stroke-width:0.14173229;stroke-miterlimit:4;stroke-dasharray:none"><path
             d="M 0,0 H 14.173"
             style="fill:none;stroke:#e90000;stroke-width:0.14173229;stroke-linecap:butt;stroke-linejoin:miter;stroke-miterlimit:4;stroke-dasharray:none;stroke-opacity:1"
             id="path266"
             inkscape:connector-curvature="0" /></g><g
           id="g268"
           transform="translate(841.565,501.2229)"
           style="fill:none;stroke:#e90000;stroke-opacity:1;stroke-width:0.14173229;stroke-miterlimit:4;stroke-dasharray:none"><path
             d="M 0,0 V -42.52"
             style="fill:none;stroke:#e90000;stroke-width:0.14173229;stroke-linecap:butt;stroke-linejoin:miter;stroke-miterlimit:4;stroke-dasharray:none;stroke-opacity:1"
             id="path270"
             inkscape:connector-curvature="0" /></g><g
           id="g272"
           transform="translate(1166.9012,42.6339)"
           style="fill:none;stroke:#e90000;stroke-opacity:1;stroke-width:0.14173229;stroke-miterlimit:4;stroke-dasharray:none"><path
             d="M 0,0 340.157,-0.542"
             style="fill:none;stroke:#e90000;stroke-width:0.14173229;stroke-linecap:butt;stroke-linejoin:miter;stroke-miterlimit:4;stroke-dasharray:none;stroke-opacity:1"
             id="path274"
             inkscape:connector-curvature="0" /></g><g
           id="g276"
           transform="translate(1535.4498,70.3935)"
           style="fill:none;stroke:#e90000;stroke-opacity:1;stroke-width:0.14173229;stroke-miterlimit:4;stroke-dasharray:none"><path
             d="M 0,0 C -0.025,-15.655 -12.736,-28.326 -28.392,-28.301"
             style="fill:none;stroke:#e90000;stroke-width:0.14173229;stroke-linecap:butt;stroke-linejoin:miter;stroke-miterlimit:4;stroke-dasharray:none;stroke-opacity:1"
             id="path278"
             inkscape:connector-curvature="0" /></g><g
           id="g280"
           transform="translate(1535.9436,423.6843)"
           style="fill:none;stroke:#e90000;stroke-opacity:1;stroke-width:0.14173229;stroke-miterlimit:4;stroke-dasharray:none"><path
             d="M 0,0 -0.023,-57.343"
             style="fill:none;stroke:#e90000;stroke-width:0.14173229;stroke-linecap:butt;stroke-linejoin:miter;stroke-miterlimit:4;stroke-dasharray:none;stroke-opacity:1"
             id="path282"
             inkscape:connector-curvature="0" /></g><g
           id="g284"
           transform="translate(1493.6593,201.9983)"
           style="fill:none;stroke:#e90000;stroke-opacity:1;stroke-width:0.14173229;stroke-miterlimit:4;stroke-dasharray:none"><path
             d="M 0,0 -0.091,-56.693"
             style="fill:none;stroke:#e90000;stroke-width:0.14173229;stroke-linecap:butt;stroke-linejoin:miter;stroke-miterlimit:4;stroke-dasharray:none;stroke-opacity:1"
             id="path286"
             inkscape:connector-curvature="0" /></g><g
           id="g288"
           transform="translate(1507.8325,201.9758)"
           style="fill:none;stroke:#e90000;stroke-opacity:1;stroke-width:0.14173229;stroke-miterlimit:4;stroke-dasharray:none"><path
             d="M 0,0 -14.173,0.023"
             style="fill:none;stroke:#e90000;stroke-width:0.14173229;stroke-linecap:butt;stroke-linejoin:miter;stroke-miterlimit:4;stroke-dasharray:none;stroke-opacity:1"
             id="path290"
             inkscape:connector-curvature="0" /></g><g
           id="g292"
           transform="translate(1507.7423,145.2829)"
           style="fill:none;stroke:#e90000;stroke-opacity:1;stroke-width:0.14173229;stroke-miterlimit:4;stroke-dasharray:none"><path
             d="M 0,0 0.09,56.693"
             style="fill:none;stroke:#e90000;stroke-width:0.14173229;stroke-linecap:butt;stroke-linejoin:miter;stroke-miterlimit:4;stroke-dasharray:none;stroke-opacity:1"
             id="path294"
             inkscape:connector-curvature="0" /></g><g
           id="g296"
           transform="translate(1493.5691,145.3055)"
           style="fill:none;stroke:#e90000;stroke-opacity:1;stroke-width:0.14173229;stroke-miterlimit:4;stroke-dasharray:none"><path
             d="M 0,0 14.173,-0.023"
             style="fill:none;stroke:#e90000;stroke-width:0.14173229;stroke-linecap:butt;stroke-linejoin:miter;stroke-miterlimit:4;stroke-dasharray:none;stroke-opacity:1"
             id="path298"
             inkscape:connector-curvature="0" /></g><g
           id="g300"
           transform="translate(1493.8696,334.073)"
           style="fill:none;stroke:#e90000;stroke-opacity:1;stroke-width:0.14173229;stroke-miterlimit:4;stroke-dasharray:none"><path
             d="M 0,0 -0.09,-56.693"
             style="fill:none;stroke:#e90000;stroke-width:0.14173229;stroke-linecap:butt;stroke-linejoin:miter;stroke-miterlimit:4;stroke-dasharray:none;stroke-opacity:1"
             id="path302"
             inkscape:connector-curvature="0" /></g><g
           id="g304"
           transform="translate(1508.0428,334.0504)"
           style="fill:none;stroke:#e90000;stroke-opacity:1;stroke-width:0.14173229;stroke-miterlimit:4;stroke-dasharray:none"><path
             d="M 0,0 -14.173,0.023"
             style="fill:none;stroke:#e90000;stroke-width:0.14173229;stroke-linecap:butt;stroke-linejoin:miter;stroke-miterlimit:4;stroke-dasharray:none;stroke-opacity:1"
             id="path306"
             inkscape:connector-curvature="0" /></g><g
           id="g308"
           transform="translate(1507.9525,277.3576)"
           style="fill:none;stroke:#e90000;stroke-opacity:1;stroke-width:0.14173229;stroke-miterlimit:4;stroke-dasharray:none"><path
             d="M 0,0 0.091,56.693"
             style="fill:none;stroke:#e90000;stroke-width:0.14173229;stroke-linecap:butt;stroke-linejoin:miter;stroke-miterlimit:4;stroke-dasharray:none;stroke-opacity:1"
             id="path310"
             inkscape:connector-curvature="0" /></g><g
           id="g312"
           transform="translate(1493.7793,277.3802)"
           style="fill:none;stroke:#e90000;stroke-opacity:1;stroke-width:0.14173229;stroke-miterlimit:4;stroke-dasharray:none"><path
             d="M 0,0 14.173,-0.023"
             style="fill:none;stroke:#e90000;stroke-width:0.14173229;stroke-linecap:butt;stroke-linejoin:miter;stroke-miterlimit:4;stroke-dasharray:none;stroke-opacity:1"
             id="path314"
             inkscape:connector-curvature="0" /></g><g
           id="g316"
           transform="translate(1535.921,366.3416)"
           style="fill:none;stroke:#e90000;stroke-opacity:1;stroke-width:0.14173229;stroke-miterlimit:4;stroke-dasharray:none"><path
             d="m 0,0 105.921,-0.169 c 8.227,-0.013 16.272,-2.819 22.493,-8.203 13.913,-12.044 19.616,-31.902 12.808,-50.155 -5.799,-15.545 -19.523,-26.499 -35.566,-28.974 -9.19,-1.418 -18.089,-4.38 -26.442,-8.466 -31.388,-15.354 -56.738,-40.843 -71.917,-72.331 -5.027,-10.427 -7.6,-21.862 -7.618,-33.438 -0.047,-29.702 -0.15,-94.212 -0.15,-94.212"
             style="fill:none;stroke:#e90000;stroke-width:0.14173229;stroke-linecap:butt;stroke-linejoin:miter;stroke-miterlimit:4;stroke-dasharray:none;stroke-opacity:1"
             id="path318"
             inkscape:connector-curvature="0" /></g><g
           id="g320"
           transform="translate(1660.1597,323.6239)"
           style="fill:none;stroke:#e90000;stroke-opacity:1;stroke-width:0.14173229;stroke-miterlimit:4;stroke-dasharray:none"><path
             d="M 0,0 V 0.006 0"
             style="fill:none;stroke:#e90000;stroke-width:0.14173229;stroke-linecap:butt;stroke-linejoin:miter;stroke-miterlimit:4;stroke-dasharray:none;stroke-opacity:1"
             id="path322"
             inkscape:connector-curvature="0" /></g><g
           id="g324"
           transform="translate(1626.8854,348.8968)"
           style="fill:none;stroke:#e90000;stroke-opacity:1;stroke-width:0.14173229;stroke-miterlimit:4;stroke-dasharray:none"><path
             d="m 0,0 c -14.09,0 -25.512,-11.422 -25.512,-25.512 0,-14.09 11.422,-25.512 25.512,-25.512 14.09,0 25.512,11.422 25.512,25.512 C 25.512,-11.422 14.09,0 0,0 Z"
             style="fill:none;stroke:#e90000;stroke-width:0.14173229;stroke-linecap:butt;stroke-linejoin:miter;stroke-miterlimit:4;stroke-dasharray:none;stroke-opacity:1"
             id="path326"
             inkscape:connector-curvature="0" /></g><g
           id="g328"
           transform="translate(811.3175,412.561)"
           style="fill:none;stroke:#e90000;stroke-opacity:1;stroke-width:0.14173229;stroke-miterlimit:4;stroke-dasharray:none"><path
             d="M 0,0 H 227.214 M 0,7.415 H 227.214 M 0,14.83 H 227.214 M 0,-29.66 H 227.214 M 0,-37.077 H 227.214 M 0,-22.246 H 227.214 M 0,-14.83 H 227.214 M 0,-7.415 h 227.214 m -110.539,3.708 h 233.358 m -362.315,0 H 104.394 M 239.495,0 h 233.356 m 12.281,0 H 712.345 M 607.947,3.708 h 116.679 m -362.313,0 h 233.353 m -607.948,0 h 116.676 m 12.281,0 H 350.033 M 239.495,7.415 h 233.356 m 12.281,0 h 227.213 m -104.398,3.708 h 116.679 m -362.313,0 h 233.353 m -607.948,0 h 116.676 m 12.281,0 H 350.033 M 239.495,14.83 h 233.356 m 12.281,0 H 712.345 M 362.313,-33.368 h 233.353 m -607.948,0 h 116.676 m 12.281,0 h 233.358 m -110.538,3.708 h 233.356 m 12.281,0 h 227.213 m -104.398,3.707 h 116.679 m -362.313,0 H 595.666 M 239.495,-37.077 h 233.356 m 12.281,0 h 227.213 m -104.398,3.709 h 116.679 m -736.908,7.415 h 116.676 m 12.281,0 h 233.358 m -110.537,3.707 h 233.355 m 135.096,3.708 h 116.679 m -239.494,-3.708 h 227.214 m -724.628,3.708 h 116.677 m 257.918,0 h 233.353 m -356.17,3.708 h 233.356 m -356.176,-3.708 h 233.358 m 135.098,3.708 h 227.214 m -104.399,3.706 h 116.679 m -607.95,0 h 233.357 m -110.537,3.708 h 233.355 m 12.281,0 h 227.214 m -104.399,3.709 h 116.679 m -362.313,0 h 233.353 m -233.353,-7.417 h 233.353 m -607.948,0 H 104.395 M 0,29.662 H 227.214 M 0,22.246 h 227.214 m 135.099,3.708 h 233.353 m -607.948,0 h 116.677 m 12.281,0 h 233.357 m -110.537,3.708 h 233.355 m 12.281,0 H 712.346 M 607.947,18.539 h 116.679 m -362.313,0 h 233.353 m -607.948,0 h 116.677 m 12.281,0 h 233.357 m -110.537,3.707 h 233.355 m 12.281,0 h 227.214 m -104.399,3.708 h 116.679"
             style="fill:none;stroke:#e90000;stroke-width:0.14173229;stroke-linecap:square;stroke-linejoin:round;stroke-miterlimit:4;stroke-dasharray:none;stroke-opacity:1"
             id="path330"
             inkscape:connector-curvature="0" /></g><g
           id="g332"
           transform="translate(1677.1597,383.6239)"
           style="fill:none;stroke:#e90000;stroke-opacity:1;stroke-width:0.14173229;stroke-miterlimit:4;stroke-dasharray:none"><path
             d="M 0,0 V 0.006 0"
             style="fill:none;stroke:#e90000;stroke-width:0.14173229;stroke-linecap:butt;stroke-linejoin:miter;stroke-miterlimit:4;stroke-dasharray:none;stroke-opacity:1"
             id="path334"
             inkscape:connector-curvature="0" /></g><g
           id="g336"
           transform="translate(799.5294,70.3935)"
           style="fill:none;stroke:#e90000;stroke-opacity:1;stroke-width:0.14173229;stroke-miterlimit:4;stroke-dasharray:none"><path
             d="M 0,0 -0.173,69.36 -0.18,94.21"
             style="fill:none;stroke:#e90000;stroke-width:0.14173229;stroke-linecap:butt;stroke-linejoin:miter;stroke-miterlimit:4;stroke-dasharray:none;stroke-opacity:1"
             id="path338"
             inkscape:connector-curvature="0" /></g><g
           id="g340"
           transform="translate(799.3789,164.6036)"
           style="fill:none;stroke:#e90000;stroke-opacity:1;stroke-width:0.14173229;stroke-miterlimit:4;stroke-dasharray:none"><path
             d="m 0,0 c -0.018,11.576 -2.591,23.011 -7.618,33.438 -15.179,31.488 -40.529,56.977 -71.917,72.331 -8.353,4.086 -17.252,7.048 -26.442,8.466 -16.043,2.475 -29.768,13.429 -35.566,28.974 -6.808,18.253 -1.105,38.111 12.808,50.155 6.22,5.384 14.266,8.19 22.493,8.203 l 105.921,0.169"
             style="fill:none;stroke:#e90000;stroke-width:0.14173229;stroke-linecap:butt;stroke-linejoin:miter;stroke-miterlimit:4;stroke-dasharray:none;stroke-opacity:1"
             id="path342"
             inkscape:connector-curvature="0" /></g><g
           id="g344"
           transform="translate(674.8191,323.622)"
           style="fill:none;stroke:#e90000;stroke-opacity:1;stroke-width:0.14173229;stroke-miterlimit:4;stroke-dasharray:none"><path
             d="M 0,0 V 0.006 0"
             style="fill:none;stroke:#e90000;stroke-width:0.14173229;stroke-linecap:butt;stroke-linejoin:miter;stroke-miterlimit:4;stroke-dasharray:none;stroke-opacity:1"
             id="path346"
             inkscape:connector-curvature="0" /></g><g
           id="g348"
           transform="translate(682.5817,323.3831)"
           style="fill:none;stroke:#e90000;stroke-opacity:1;stroke-width:0.14173229;stroke-miterlimit:4;stroke-dasharray:none"><path
             d="m 0,0 c 0,-14.09 11.422,-25.512 25.512,-25.512 14.09,0 25.512,11.422 25.512,25.512 0,14.09 -11.422,25.512 -25.512,25.512 C 11.422,25.512 0,14.09 0,0 Z"
             style="fill:none;stroke:#e90000;stroke-width:0.14173229;stroke-linecap:butt;stroke-linejoin:miter;stroke-miterlimit:4;stroke-dasharray:none;stroke-opacity:1"
             id="path350"
             inkscape:connector-curvature="0" /></g><g
           id="g352"
           transform="translate(657.8191,383.622)"
           style="fill:none;stroke:#e90000;stroke-opacity:1;stroke-width:0.14173229;stroke-miterlimit:4;stroke-dasharray:none"><path
             d="M 0,0 V 0.006 0"
             style="fill:none;stroke:#e90000;stroke-width:0.14173229;stroke-linecap:butt;stroke-linejoin:miter;stroke-miterlimit:4;stroke-dasharray:none;stroke-opacity:1"
             id="path354"
             inkscape:connector-curvature="0" /></g><g
           id="g356"
           transform="translate(1176.2466,309.8418)"
           style="fill:none;stroke:#e90000;stroke-opacity:1;stroke-width:0.14173229;stroke-miterlimit:4;stroke-dasharray:none"><path
             d="m 0,0 c 0,-4.697 -3.807,-8.504 -8.504,-8.504 -4.697,0 -8.504,3.807 -8.504,8.504 0,4.697 3.807,8.504 8.504,8.504 C -3.807,8.504 0,4.697 0,0 Z"
             style="fill:none;stroke:#e90000;stroke-width:0.14173229;stroke-linecap:butt;stroke-linejoin:miter;stroke-miterlimit:4;stroke-dasharray:none;stroke-opacity:1"
             id="path358"
             inkscape:connector-curvature="0" /></g><g
           id="g360"
           transform="translate(808.0333,643.936)"
           style="fill:none;stroke:#e90000;stroke-opacity:1;stroke-width:0.14173229;stroke-miterlimit:4;stroke-dasharray:none"><path
             d="m 0,0 c 0,-4.697 -3.807,-8.504 -8.504,-8.504 -4.697,0 -8.504,3.807 -8.504,8.504 0,4.697 3.807,8.504 8.504,8.504 C -3.807,8.504 0,4.697 0,0 Z"
             style="fill:none;stroke:#e90000;stroke-width:0.14173229;stroke-linecap:butt;stroke-linejoin:miter;stroke-miterlimit:4;stroke-dasharray:none;stroke-opacity:1"
             id="path362"
             inkscape:connector-curvature="0" /></g><g
           id="g364"
           transform="translate(799.5294,677.9517)"
           style="fill:none;stroke:#e90000;stroke-opacity:1;stroke-width:0.14173229;stroke-miterlimit:4;stroke-dasharray:none"><path
             d="m 0,0 c 18.786,0 34.016,-15.229 34.016,-34.016 0,-18.786 -15.23,-34.015 -34.016,-34.015 -18.786,0 -34.016,15.229 -34.016,34.015 C -34.016,-15.229 -18.786,0 0,0 Z"
             style="fill:none;stroke:#e90000;stroke-width:0.14173229;stroke-linecap:butt;stroke-linejoin:miter;stroke-miterlimit:4;stroke-dasharray:none;stroke-opacity:1"
             id="path366"
             inkscape:connector-curvature="0" /></g><g
           id="g368"
           transform="translate(540.3386,756.8605)"
           style="fill:none;stroke:#e90000;stroke-opacity:1;stroke-width:0.14173229;stroke-miterlimit:4;stroke-dasharray:none"><path
             d="m 0,0 c 0,-6.262 -5.076,-11.339 -11.339,-11.339 -6.262,0 -11.338,5.077 -11.338,11.339 0,6.262 5.076,11.339 11.338,11.339 C -5.076,11.339 0,6.262 0,0 Z"
             style="fill:none;stroke:#e90000;stroke-width:0.14173229;stroke-linecap:butt;stroke-linejoin:miter;stroke-miterlimit:4;stroke-dasharray:none;stroke-opacity:1"
             id="path370"
             inkscape:connector-curvature="0" /></g><g
           id="g372"
           transform="translate(578.4524,756.8605)"
           style="fill:none;stroke:#e90000;stroke-opacity:1;stroke-width:0.14173229;stroke-miterlimit:4;stroke-dasharray:none"><path
             d="m 0,0 c 0,-6.262 -5.076,-11.339 -11.339,-11.339 -6.262,0 -11.338,5.077 -11.338,11.339 0,6.262 5.076,11.339 11.338,11.339 C -5.076,11.339 0,6.262 0,0 Z"
             style="fill:none;stroke:#e90000;stroke-width:0.14173229;stroke-linecap:butt;stroke-linejoin:miter;stroke-miterlimit:4;stroke-dasharray:none;stroke-opacity:1"
             id="path374"
             inkscape:connector-curvature="0" /></g><g
           id="g376"
           transform="translate(616.5662,756.8605)"
           style="fill:none;stroke:#e90000;stroke-opacity:1;stroke-width:0.14173229;stroke-miterlimit:4;stroke-dasharray:none"><path
             d="m 0,0 c 0,-6.262 -5.076,-11.339 -11.339,-11.339 -6.262,0 -11.338,5.077 -11.338,11.339 0,6.262 5.076,11.339 11.338,11.339 C -5.076,11.339 0,6.262 0,0 Z"
             style="fill:none;stroke:#e90000;stroke-width:0.14173229;stroke-linecap:butt;stroke-linejoin:miter;stroke-miterlimit:4;stroke-dasharray:none;stroke-opacity:1"
             id="path378"
             inkscape:connector-curvature="0" /></g><g
           id="g380"
           transform="translate(654.68,756.8605)"
           style="fill:none;stroke:#e90000;stroke-opacity:1;stroke-width:0.14173229;stroke-miterlimit:4;stroke-dasharray:none"><path
             d="m 0,0 c 0,-6.262 -5.076,-11.339 -11.339,-11.339 -6.262,0 -11.338,5.077 -11.338,11.339 0,6.262 5.076,11.339 11.338,11.339 C -5.076,11.339 0,6.262 0,0 Z"
             style="fill:none;stroke:#e90000;stroke-width:0.14173229;stroke-linecap:butt;stroke-linejoin:miter;stroke-miterlimit:4;stroke-dasharray:none;stroke-opacity:1"
             id="path382"
             inkscape:connector-curvature="0" /></g><g
           id="g384"
           transform="translate(605.2276,707.8804)"
           style="fill:none;stroke:#e90000;stroke-opacity:1;stroke-width:0.14173229;stroke-miterlimit:4;stroke-dasharray:none"><path
             d="m 0,0 c -6.262,0 -11.339,5.076 -11.339,11.339 0,6.262 5.077,11.338 11.339,11.338 h 38.114 c 6.262,0 11.338,-5.076 11.338,-11.338 C 49.452,5.076 44.376,0 38.114,0 Z"
             style="fill:none;stroke:#e90000;stroke-width:0.14173229;stroke-linecap:butt;stroke-linejoin:miter;stroke-miterlimit:4;stroke-dasharray:none;stroke-opacity:1"
             id="path386"
             inkscape:connector-curvature="0" /></g><g
           id="g388"
           transform="translate(605.2276,670.239)"
           style="fill:none;stroke:#e90000;stroke-opacity:1;stroke-width:0.14173229;stroke-miterlimit:4;stroke-dasharray:none"><path
             d="m 0,0 c -6.262,0 -11.339,5.076 -11.339,11.339 0,6.262 5.077,11.338 11.339,11.338 h 38.114 c 6.262,0 11.338,-5.076 11.338,-11.338 C 49.452,5.076 44.376,0 38.114,0 Z"
             style="fill:none;stroke:#e90000;stroke-width:0.14173229;stroke-linecap:butt;stroke-linejoin:miter;stroke-miterlimit:4;stroke-dasharray:none;stroke-opacity:1"
             id="path390"
             inkscape:connector-curvature="0" /></g><g
           id="g392"
           transform="translate(605.2276,632.5974)"
           style="fill:none;stroke:#e90000;stroke-opacity:1;stroke-width:0.14173229;stroke-miterlimit:4;stroke-dasharray:none"><path
             d="m 0,0 c -6.262,0 -11.339,5.076 -11.339,11.339 0,6.262 5.077,11.338 11.339,11.338 h 38.114 c 6.262,0 11.338,-5.076 11.338,-11.338 C 49.452,5.076 44.376,0 38.114,0 Z"
             style="fill:none;stroke:#e90000;stroke-width:0.14173229;stroke-linecap:butt;stroke-linejoin:miter;stroke-miterlimit:4;stroke-dasharray:none;stroke-opacity:1"
             id="path394"
             inkscape:connector-curvature="0" /></g><g
           id="g396"
           transform="translate(605.2276,594.9559)"
           style="fill:none;stroke:#e90000;stroke-opacity:1;stroke-width:0.14173229;stroke-miterlimit:4;stroke-dasharray:none"><path
             d="m 0,0 c -6.262,0 -11.339,5.076 -11.339,11.339 0,6.262 5.077,11.338 11.339,11.338 h 38.114 c 6.262,0 11.338,-5.076 11.338,-11.338 C 49.452,5.076 44.376,0 38.114,0 Z"
             style="fill:none;stroke:#e90000;stroke-width:0.14173229;stroke-linecap:butt;stroke-linejoin:miter;stroke-miterlimit:4;stroke-dasharray:none;stroke-opacity:1"
             id="path398"
             inkscape:connector-curvature="0" /></g><g
           id="g400"
           transform="translate(605.2276,557.3144)"
           style="fill:none;stroke:#e90000;stroke-opacity:1;stroke-width:0.14173229;stroke-miterlimit:4;stroke-dasharray:none"><path
             d="m 0,0 c -6.262,0 -11.339,5.076 -11.339,11.339 0,6.262 5.077,11.338 11.339,11.338 h 38.114 c 6.262,0 11.338,-5.076 11.338,-11.338 C 49.452,5.076 44.376,0 38.114,0 Z"
             style="fill:none;stroke:#e90000;stroke-width:0.14173229;stroke-linecap:butt;stroke-linejoin:miter;stroke-miterlimit:4;stroke-dasharray:none;stroke-opacity:1"
             id="path402"
             inkscape:connector-curvature="0" /></g><g
           id="g404"
           transform="translate(605.2276,519.6729)"
           style="fill:none;stroke:#e90000;stroke-opacity:1;stroke-width:0.14173229;stroke-miterlimit:4;stroke-dasharray:none"><path
             d="m 0,0 c -6.262,0 -11.339,5.076 -11.339,11.339 0,6.262 5.077,11.338 11.339,11.338 h 38.114 c 6.262,0 11.338,-5.076 11.338,-11.338 C 49.452,5.076 44.376,0 38.114,0 Z"
             style="fill:none;stroke:#e90000;stroke-width:0.14173229;stroke-linecap:butt;stroke-linejoin:miter;stroke-miterlimit:4;stroke-dasharray:none;stroke-opacity:1"
             id="path406"
             inkscape:connector-curvature="0" /></g><g
           id="g408"
           transform="translate(605.2276,482.0313)"
           style="fill:none;stroke:#e90000;stroke-opacity:1;stroke-width:0.14173229;stroke-miterlimit:4;stroke-dasharray:none"><path
             d="m 0,0 c -6.262,0 -11.339,5.076 -11.339,11.339 0,6.262 5.077,11.338 11.339,11.338 h 38.114 c 6.262,0 11.338,-5.076 11.338,-11.338 C 49.452,5.076 44.376,0 38.114,0 Z"
             style="fill:none;stroke:#e90000;stroke-width:0.14173229;stroke-linecap:butt;stroke-linejoin:miter;stroke-miterlimit:4;stroke-dasharray:none;stroke-opacity:1"
             id="path410"
             inkscape:connector-curvature="0" /></g><g
           id="g412"
           transform="translate(284.2492,408.6695)"
           style="fill:none;stroke:#e90000;stroke-opacity:1;stroke-width:0.14173229;stroke-miterlimit:4;stroke-dasharray:none"><path
             d="M 0,0 V 28.346 H -14.173 V 0 h -203.15 v 132.283"
             style="fill:none;stroke:#e90000;stroke-width:0.14173229;stroke-linecap:butt;stroke-linejoin:miter;stroke-miterlimit:4;stroke-dasharray:none;stroke-opacity:1"
             id="path414"
             inkscape:connector-curvature="0" /></g><g
           id="g416"
           transform="translate(501.5721,408.6695)"
           style="fill:none;stroke:#e90000;stroke-opacity:1;stroke-width:0.14173229;stroke-miterlimit:4;stroke-dasharray:none"><path
             d="M 0,0 V 28.346 H 14.173 V 0 h 203.15 v 132.283"
             style="fill:none;stroke:#e90000;stroke-width:0.14173229;stroke-linecap:butt;stroke-linejoin:miter;stroke-miterlimit:4;stroke-dasharray:none;stroke-opacity:1"
             id="path418"
             inkscape:connector-curvature="0" /></g></g></g></g></svg>